Playing With Scraping & Sentiment Analysis
…
This created three images. First, this is a graph over the month of June of several different sentiments, and then a wordcloud of words associated with these sentiments. Finally, there is a sentiment wordcloud of positive and negative words.

## # A tibble: 256 x 3
##    word1 word2     n
##    <chr> <chr> <int>
##  1 not   to       48
##  2 not   a        37
##  3 not   going    30
##  4 not   even     29
##  5 not   only     24
##  6 not   sure     22
##  7 not   the      19
##  8 not   just     15
##  9 not   that     14
## 10 not   as       12
## # ... with 246 more rows
…
